land,regio,temp,soort,land_summary,regio_info,land_location
Spanje,Barcelona,25,,"Spanje, officieel het Koninkrijk Spanje (Spaans: Reino de España), is een land in het zuidwesten van Europa met 50.015.792 (2020) inwoners en een oppervlakte van 505.992 km². Het land beslaat grofweg 80% van het Iberisch Schiereiland. Buiten dat horen ook de eilandengroep Balearen in de Middellandse Zee, de Canarische Eilanden in de Atlantische Oceaan en de Spaanse exclaves in Noord-Afrika bij het land.
In het noordoosten grenst Spanje aan Frankrijk en Andorra, over de gehele lengte van de Pyreneeën, in het westen aan Portugal, in het zuiden aan de Britse kolonie Gibraltar en via de exclaves Melilla en Ceuta aan Marokko. De hoofdstad van Spanje is Madrid, een stad met meer dan 3 miljoen inwoners gelegen in het midden van het land.
Het grondgebied van Iberiërs, Kelten, Feniciërs, Basken en andere volkeren werd omstreeks 200 door de Romeinen veroverd en Hispania gedoopt. Na de Val van het West-Romeinse Rijk en de Grote Volksverhuizing werd dit gebied door de Visigoten veroverd, alvorens de islamitische Moren het Visigotische Rijk in de 8e eeuw binnenvielen. Aan hun heerschappij, die zich over bijna heel Spanje uitstrekte, kwam pas met de voltooiing van de Reconquista in 1492 een einde. In haastig tempo en in navolging van Portugal ontstond vervolgens een uitgestrekt wereldrijk. Ondanks grote rijkdommen uit voornamelijk Latijns-Amerika zakte Spanje vanaf de 17e eeuw door vele Europese oorlogen verder en verder terug. De 19e eeuw werd gekenmerkt door binnenlandse conflicten die Spanje teisterden en na de Spaanse Burgeroorlog (1936–1939) werd het land onder Francisco Franco een fascistische dictatuur. Na Franco's dood in 1975 werden de constitutionele monarchie en de parlementaire democratie hersteld. Spanje werd lid van de NAVO in 1982 en is lid van de Europese Unie sinds 1986.
Spanje is een divers land met zeer uiteenlopende culturen, talen, eetgewoonten en klimaten. Het land varieert van de regenachtige vissersdorpen in Galicië tot het nachtleven van Madrid, van de toeristische kusten aan de Middellandse Zee tot het flamencodansen van Andalusië en van het stierenvechten in vele delen van het land tot het moderne Barcelona in Catalonië. Naast Spaans (Castiliaans) zijn Catalaans, Baskisch en Galicisch zogenaamde 'co-officiële' talen van het land. De euro is sinds 2002 de Spaanse munteenheid, als opvolger van de peseta.","FC Barcelona is een betaald voetbalclub uit Barcelona, Catalonië (Spanje). De club behoort tot de grote der aarde en is met 95 trofeeën de meest succesvolle voetbalclub in Spanje. De clubkleuren zijn paars (of granaatrood)-blauw (blaugrana) en het stadion van FC Barcelona is Camp Nou, dat letterlijk 'nieuw veld' betekent. De aartsrivaal van Barcelona is Real Madrid. Wedstrijden tussen beide clubs staan bekend als El Clásico. Nog een belangrijke rivaal is buurtgenoot Espanyol; de onderlinge duels dragen de naam Derbi de Barcelona.
De club werd begin 2010 door de IFFHS verkozen tot beste ploeg over de periode 1991-2009. Barcelona is de enigste voetbalclub in de wereld waarbij zowel het vrouwenteam als de mannenteam de Champions League en een treble op hun naam hebben.
Voor de Catalaanse bevolking werd in de jaren van het strenge regime van Franco de club het absolute symbool van hun eigen identiteit en drang naar onafhankelijkheid. Dat is hij tot op de dag van vandaag gebleven.","39.3260685,-4.8379791"
Nederland,Amsterdam,20,,"Nederland is een van de landen binnen het Koninkrijk der Nederlanden. Nederland ligt voor het overgrote deel in het noordwesten van Europa, aan de Noordzee. Naast het Europese deel zijn er nog de drie bijzondere gemeenten in de Caribische Zee, die ook wel Caribisch Nederland worden genoemd. Europees Nederland wordt in het zuiden begrensd door België, langs de oostgrens door Duitsland en aan west- en noordzijde door de zee. De hoofdstad van Nederland is Amsterdam, de regeringszetel is Den Haag.
Nederland heeft een inwonertal van 17.474.693 (1 januari 2021) en met een oppervlakte van 41.543 km² een bevolkingsdichtheid van bijna 420 inwoners/km². Daarmee is Nederland het op vijftien na dichtst bevolkte land van de wereld; met de kleine stadstaten Monaco, Vaticaanstad en San Marino niet meegerekend is Nederland na Malta het dichtstbevolkte land in Europa. Ruim 19% van het oppervlak bestaat uit water en een groot deel van het land en de bevolking bevindt zich onder zeeniveau. Het land wordt beschermd tegen het water door middel van een systeem van dijken en waterwerken. Door landwinning zijn polders gecreëerd. Bestuurlijk is het land verdeeld in twaalf provincies en circa 350 gemeenten.
Nederland werd onafhankelijk tijdens de Tachtigjarige Oorlog (1568-1648), waarin de gezamenlijke Noordelijke en Zuidelijke Nederlanden tegen de Spaanse overheersing in opstand kwamen. In 1579 vormden de Noordelijke Nederlanden de Unie van Utrecht, waarmee een nieuwe politieke entiteit ontstond. Met de Acte van Verlatinghe van 1581 werd door de gewesten van die unie, Stad en Lande (Groningen), Friesland, Overijssel, Gelderland, Utrecht, Holland, Zeeland, de onafhankelijkheid van de Republiek der Zeven Verenigde Nederlanden uitgeroepen. Deze werd vanaf 1609 bij het begin van het Twaalfjarig Bestand internationaal erkend en na de Vrede van Münster (1648) ook door Spanje. Vanaf de Franse tijd (1795-1813) ontwikkelde Nederland zich tot een natiestaat. De Nederlandse vorst regeerde anno 1815 ook over het huidige België en Luxemburg, evenals een aantal overzeese gebieden (Nederlands-Indië, Suriname en de Nederlandse Antillen). België werd echter onafhankelijk na de Belgische Revolutie in 1830 en Luxemburg maakte zich in 1890 los van de Nederlandse Kroon. De dekolonisatie maakte in de 20e eeuw ook een einde aan de Nederlandse koloniën. Behalve de drie Caribische bijzondere gemeenten onderhouden ook de eilanden Aruba, Curaçao en Sint Maarten een hechte band met Nederland: deze vier landen vormen sinds 2010 samen het Koninkrijk der Nederlanden.
Politiek is Nederland sinds de grondwetsherziening van 1848 een parlementaire democratie met een constitutionele monarchie, een staatsvorm waarbij de macht volgens de regels gedeeld wordt door de koning(in), de ministers onder wie de minister-president en de twee kamers van het parlement. Nederland was medeoprichter van onder meer de Europese Unie, de G-10, de NAVO, de Wereldhandelsorganisatie en de OESO. Met België en Luxemburg vormt het de Benelux. Den Haag speelt een belangrijke internationale rol op juridisch gebied, als locatie voor vier internationale tribunalen en Europol. In 2009 behoorde Nederland als 's werelds zevende economie naar bbp per hoofd van de bevolking tot de meest ontwikkelde landen. Het bezette in 2013 de vierde plaats in de index van de menselijke ontwikkeling. De Nederlandse economie steunt vooral op een zeer hoog ontwikkelde land- en tuinbouwsector, de dienstensector en de internationale handel, met name op de doorvoer van goederen naar Duitsland.","Amsterdam is de hoofdstad van Nederland. De gemeente Amsterdam is naar inwonertal de grootste gemeente. De stad, in het Amsterdams ook Mokum genoemd (afkomstig uit het Jiddisch), ligt in de provincie Noord-Holland, aan het IJ, het Noordzeekanaal en de monding van de Amstel. De gemeente Amsterdam telt 872.922 inwoners (1 januari 2021, CBS). Groot-Amsterdam telt 1.394.998 inwoners. Het aantal verschillende nationaliteiten in de gemeente (in 2007: 177) behoort tot de hoogste ter wereld.Amsterdam dankt zijn naam aan de ligging bij een in de 13e eeuw aangelegde dam in de Amstel. De plaats kreeg kort na 1300 stadsrechten, werd in 1345 door het Mirakel van Amsterdam een pelgrimsoord en groeide in de Gouden Eeuw uit tot een van de belangrijkste haven- en handelssteden ter wereld. Een toestroom van buitenlanders uit vooral de Zuidelijke Nederlanden, Duitsland en de Scandinavische landen leidde vanaf het eind van de 16e eeuw tot stadsuitbreidingen, waaronder de laatste grachten van de fortificatie die nu als grachtengordel bekend is en in 2010 is toegevoegd aan de Werelderfgoedlijst van UNESCO.
Bezienswaardigheden en attracties in Amsterdam zijn het Rijksmuseum, het Stedelijk Museum, het Van Gogh Museum en Het Scheepvaartmuseum, het Anne Frank Huis, het Concertgebouw, Muziekgebouw aan 't IJ en EYE Filmmuseum, dierentuin Artis, de Wallen, de coffeeshops en de Johan Cruijff ArenA. De stad telt twee universiteiten en meerdere hogescholen.","52.5001698,5.7480821"
Spanje,Andalusië,30,,"Spanje, officieel het Koninkrijk Spanje (Spaans: Reino de España), is een land in het zuidwesten van Europa met 50.015.792 (2020) inwoners en een oppervlakte van 505.992 km². Het land beslaat grofweg 80% van het Iberisch Schiereiland. Buiten dat horen ook de eilandengroep Balearen in de Middellandse Zee, de Canarische Eilanden in de Atlantische Oceaan en de Spaanse exclaves in Noord-Afrika bij het land.
In het noordoosten grenst Spanje aan Frankrijk en Andorra, over de gehele lengte van de Pyreneeën, in het westen aan Portugal, in het zuiden aan de Britse kolonie Gibraltar en via de exclaves Melilla en Ceuta aan Marokko. De hoofdstad van Spanje is Madrid, een stad met meer dan 3 miljoen inwoners gelegen in het midden van het land.
Het grondgebied van Iberiërs, Kelten, Feniciërs, Basken en andere volkeren werd omstreeks 200 door de Romeinen veroverd en Hispania gedoopt. Na de Val van het West-Romeinse Rijk en de Grote Volksverhuizing werd dit gebied door de Visigoten veroverd, alvorens de islamitische Moren het Visigotische Rijk in de 8e eeuw binnenvielen. Aan hun heerschappij, die zich over bijna heel Spanje uitstrekte, kwam pas met de voltooiing van de Reconquista in 1492 een einde. In haastig tempo en in navolging van Portugal ontstond vervolgens een uitgestrekt wereldrijk. Ondanks grote rijkdommen uit voornamelijk Latijns-Amerika zakte Spanje vanaf de 17e eeuw door vele Europese oorlogen verder en verder terug. De 19e eeuw werd gekenmerkt door binnenlandse conflicten die Spanje teisterden en na de Spaanse Burgeroorlog (1936–1939) werd het land onder Francisco Franco een fascistische dictatuur. Na Franco's dood in 1975 werden de constitutionele monarchie en de parlementaire democratie hersteld. Spanje werd lid van de NAVO in 1982 en is lid van de Europese Unie sinds 1986.
Spanje is een divers land met zeer uiteenlopende culturen, talen, eetgewoonten en klimaten. Het land varieert van de regenachtige vissersdorpen in Galicië tot het nachtleven van Madrid, van de toeristische kusten aan de Middellandse Zee tot het flamencodansen van Andalusië en van het stierenvechten in vele delen van het land tot het moderne Barcelona in Catalonië. Naast Spaans (Castiliaans) zijn Catalaans, Baskisch en Galicisch zogenaamde 'co-officiële' talen van het land. De euro is sinds 2002 de Spaanse munteenheid, als opvolger van de peseta.","Andalusië of Andaloesië (Spaans: Andalucía) is een van de zeventien autonome regio's van Spanje. In 2012 had het een inwonertal van 8.449.985, en is daarmee de grootste Spaanse autonome regio naar inwoneraantal. De hoofdstad van Andalusië is Sevilla. Andalusië moet niet verward worden met Al-Andalus wat het grootste gedeelte van Spanje en Portugal bevatte.","39.3260685,-4.8379791"
Spanje,Madrid,31,,"Spanje, officieel het Koninkrijk Spanje (Spaans: Reino de España), is een land in het zuidwesten van Europa met 50.015.792 (2020) inwoners en een oppervlakte van 505.992 km². Het land beslaat grofweg 80% van het Iberisch Schiereiland. Buiten dat horen ook de eilandengroep Balearen in de Middellandse Zee, de Canarische Eilanden in de Atlantische Oceaan en de Spaanse exclaves in Noord-Afrika bij het land.
In het noordoosten grenst Spanje aan Frankrijk en Andorra, over de gehele lengte van de Pyreneeën, in het westen aan Portugal, in het zuiden aan de Britse kolonie Gibraltar en via de exclaves Melilla en Ceuta aan Marokko. De hoofdstad van Spanje is Madrid, een stad met meer dan 3 miljoen inwoners gelegen in het midden van het land.
Het grondgebied van Iberiërs, Kelten, Feniciërs, Basken en andere volkeren werd omstreeks 200 door de Romeinen veroverd en Hispania gedoopt. Na de Val van het West-Romeinse Rijk en de Grote Volksverhuizing werd dit gebied door de Visigoten veroverd, alvorens de islamitische Moren het Visigotische Rijk in de 8e eeuw binnenvielen. Aan hun heerschappij, die zich over bijna heel Spanje uitstrekte, kwam pas met de voltooiing van de Reconquista in 1492 een einde. In haastig tempo en in navolging van Portugal ontstond vervolgens een uitgestrekt wereldrijk. Ondanks grote rijkdommen uit voornamelijk Latijns-Amerika zakte Spanje vanaf de 17e eeuw door vele Europese oorlogen verder en verder terug. De 19e eeuw werd gekenmerkt door binnenlandse conflicten die Spanje teisterden en na de Spaanse Burgeroorlog (1936–1939) werd het land onder Francisco Franco een fascistische dictatuur. Na Franco's dood in 1975 werden de constitutionele monarchie en de parlementaire democratie hersteld. Spanje werd lid van de NAVO in 1982 en is lid van de Europese Unie sinds 1986.
Spanje is een divers land met zeer uiteenlopende culturen, talen, eetgewoonten en klimaten. Het land varieert van de regenachtige vissersdorpen in Galicië tot het nachtleven van Madrid, van de toeristische kusten aan de Middellandse Zee tot het flamencodansen van Andalusië en van het stierenvechten in vele delen van het land tot het moderne Barcelona in Catalonië. Naast Spaans (Castiliaans) zijn Catalaans, Baskisch en Galicisch zogenaamde 'co-officiële' talen van het land. De euro is sinds 2002 de Spaanse munteenheid, als opvolger van de peseta.","Atlético Madrid is een Spaanse voetbalclub, opgericht in 1903 en uitkomend in de Primera División.
Atlético Madrid heeft ook een tweede team, Atlético Madrid B (ook wel Atlético Madrileño genoemd) dat uitkomt in de Segunda División B en een derde team, Atlético Madrid C (ook wel Atlético Aviación genoemd) dat uitkomt in de Tercera División Grupo 7.

","39.3260685,-4.8379791"
Nederland,Enschede,10,,"Nederland is een van de landen binnen het Koninkrijk der Nederlanden. Nederland ligt voor het overgrote deel in het noordwesten van Europa, aan de Noordzee. Naast het Europese deel zijn er nog de drie bijzondere gemeenten in de Caribische Zee, die ook wel Caribisch Nederland worden genoemd. Europees Nederland wordt in het zuiden begrensd door België, langs de oostgrens door Duitsland en aan west- en noordzijde door de zee. De hoofdstad van Nederland is Amsterdam, de regeringszetel is Den Haag.
Nederland heeft een inwonertal van 17.474.693 (1 januari 2021) en met een oppervlakte van 41.543 km² een bevolkingsdichtheid van bijna 420 inwoners/km². Daarmee is Nederland het op vijftien na dichtst bevolkte land van de wereld; met de kleine stadstaten Monaco, Vaticaanstad en San Marino niet meegerekend is Nederland na Malta het dichtstbevolkte land in Europa. Ruim 19% van het oppervlak bestaat uit water en een groot deel van het land en de bevolking bevindt zich onder zeeniveau. Het land wordt beschermd tegen het water door middel van een systeem van dijken en waterwerken. Door landwinning zijn polders gecreëerd. Bestuurlijk is het land verdeeld in twaalf provincies en circa 350 gemeenten.
Nederland werd onafhankelijk tijdens de Tachtigjarige Oorlog (1568-1648), waarin de gezamenlijke Noordelijke en Zuidelijke Nederlanden tegen de Spaanse overheersing in opstand kwamen. In 1579 vormden de Noordelijke Nederlanden de Unie van Utrecht, waarmee een nieuwe politieke entiteit ontstond. Met de Acte van Verlatinghe van 1581 werd door de gewesten van die unie, Stad en Lande (Groningen), Friesland, Overijssel, Gelderland, Utrecht, Holland, Zeeland, de onafhankelijkheid van de Republiek der Zeven Verenigde Nederlanden uitgeroepen. Deze werd vanaf 1609 bij het begin van het Twaalfjarig Bestand internationaal erkend en na de Vrede van Münster (1648) ook door Spanje. Vanaf de Franse tijd (1795-1813) ontwikkelde Nederland zich tot een natiestaat. De Nederlandse vorst regeerde anno 1815 ook over het huidige België en Luxemburg, evenals een aantal overzeese gebieden (Nederlands-Indië, Suriname en de Nederlandse Antillen). België werd echter onafhankelijk na de Belgische Revolutie in 1830 en Luxemburg maakte zich in 1890 los van de Nederlandse Kroon. De dekolonisatie maakte in de 20e eeuw ook een einde aan de Nederlandse koloniën. Behalve de drie Caribische bijzondere gemeenten onderhouden ook de eilanden Aruba, Curaçao en Sint Maarten een hechte band met Nederland: deze vier landen vormen sinds 2010 samen het Koninkrijk der Nederlanden.
Politiek is Nederland sinds de grondwetsherziening van 1848 een parlementaire democratie met een constitutionele monarchie, een staatsvorm waarbij de macht volgens de regels gedeeld wordt door de koning(in), de ministers onder wie de minister-president en de twee kamers van het parlement. Nederland was medeoprichter van onder meer de Europese Unie, de G-10, de NAVO, de Wereldhandelsorganisatie en de OESO. Met België en Luxemburg vormt het de Benelux. Den Haag speelt een belangrijke internationale rol op juridisch gebied, als locatie voor vier internationale tribunalen en Europol. In 2009 behoorde Nederland als 's werelds zevende economie naar bbp per hoofd van de bevolking tot de meest ontwikkelde landen. Het bezette in 2013 de vierde plaats in de index van de menselijke ontwikkeling. De Nederlandse economie steunt vooral op een zeer hoog ontwikkelde land- en tuinbouwsector, de dienstensector en de internationale handel, met name op de doorvoer van goederen naar Duitsland.","Enschede ( uitspraak (info / uitleg)) (Nedersaksisch: Eanske) is een stad en gemeente in Twente, in het oosten van de Nederlandse provincie Overijssel.
Onder de gemeente Enschede vallen, naast de stad Enschede, de dorpen Lonneker, Boekelo, Usselo, Glanerbrug en de buurtschap Twekkelo, die voor de postcodes allemaal onder de woonplaats Enschede vallen. De gemeente telt 159.703 inwoners (1 januari 2021, bron: CBS) met circa 160 nationaliteiten. Enschede is daarmee de grootste stad van Overijssel en naar inwoneraantal de veertiende gemeente van Nederland.
De oorspronkelijke gemeente Enschede had vanaf 1818 een zeer planmatige zeshoekige vorm (een van de meest planmatige van Nederland) en werd geheel omringd door de gemeente Lonneker. De grens werd in 1826 gemarkeerd door 6 genummerde stenen palen van Bentheimer zandsteen. In 1884 werden delen van Lonneker geannexeerd. In 1934 werd de rest van de gemeente Lonneker geannexeerd.
De gemeente Enschede werkt samen in de Regio Twente en is deelnemer van het eerste uur aan de EUREGIO, het eerste regionale grensoverschrijdende samenwerkingsverband in Europa.","52.5001698,5.7480821"
Engeland,Londen,15,,"Engeland (Engels: England) is een voormalig koninkrijk en maakt als constituerend land met Noord-Ierland, Schotland en Wales deel uit van één soevereine staat: het Verenigd Koninkrijk. Van deze vier is Engeland het gebied met de meeste inwoners en de grootste oppervlakte. Het omvat het zuidelijke deel van het eiland Groot-Brittannië, in het westen grenzend aan Wales en in het noorden aan Schotland. Engeland telde in 2019 ruim 56,3 miljoen inwoners.
De naam Engeland werd in het verleden pars pro toto gebruikt om heel Groot-Brittannië of het Verenigd Koninkrijk aan te duiden. Met de opkomst van het Schotse nationalisme in de jaren dertig verdween deze gewoonte. Daarna geldt dit gebruik van het woord Engeland voor Groot-Brittannië als politiek incorrect.","Londen (Engels: London) is de hoofdstad en grootste stad van zowel Engeland als het Verenigd Koninkrijk.
In de regio Groot-Londen, waarvan de begrenzing vaak gelijk wordt gesteld aan die van de stad Londen, wonen bijna 8,7 miljoen mensen. De hele regio van de metropool strekt zich evenwel nog ver uit buiten de grenzen van Groot-Londen. De grenzen hiervan zijn niet gemakkelijk aan te geven, het aantal inwoners ligt tussen de 12 en 14 miljoen. Tussen 1831 en 1925 was Londen de grootste stad ter wereld.De stad is, behalve de hoofdstad en de grootste stad van het Verenigd Koninkrijk, ook het politieke, economische en culturele centrum van dat land. Ook in Europa en de wereld vervult ze een belangrijke functie op diverse gebieden: Londen wordt als een van de vier traditionele alfa-wereldsteden beschouwd, samen met Parijs, Tokio en New York. Vooral in de 18e en de 19e eeuw was Londen als hoofdstad van het Britse Rijk het absolute politieke en economische machtscentrum van de wereld.
Londen telt vier plaatsen die op de Werelderfgoedlijst van de UNESCO staan: de Tower of London, de historische nederzetting van Greenwich, de Kew Gardens, en een gezamenlijke inschrijving bestaande uit het Palace of Westminster, Westminster Abbey en Saint Margaret's Church.","52.5310214,-1.2649062"
Irak,Bagdad,40,,"Irak (Arabisch: العراق al-ʿIrāq, Koerdisch: Komara Êraqê), officieel de Republiek Irak, is een land in het Midden-Oosten. Het land ligt voor een groot deel in en rond het stroomgebied van de rivieren de Eufraat en de Tigris, het gebied dat vanouds bekendstaat als Mesopotamië. Het zuidoosten van Irak ligt aan de Perzische Golf, verder grenst het land met de klok mee aan Koeweit, Saoedi-Arabië, Jordanië, Syrië, Turkije en Iran. Irak behoort tot de Arabische Liga. De hoofdstad is Bagdad.
Wat betreft de naam van het land wordt wel beweerd dat deze in de loop der eeuwen van de naam van de stad Uruk in Sumer zou zijn afgeleid.","Bagdad (Arabisch: بغداد) is de hoofdstad van Irak. De stad ligt aan de Tigris en telt ruim 8 miljoen inwoners. Het is de grootste stad van Irak en, na Caïro, de grootste stad van de Arabische wereld.

","33.0955793,44.1749775"
Nederland,Rotterdam,20,city trip,"Nederland is een van de landen binnen het Koninkrijk der Nederlanden. Nederland ligt voor het overgrote deel in het noordwesten van Europa, aan de Noordzee. Naast het Europese deel zijn er nog de drie bijzondere gemeenten in de Caribische Zee, die ook wel Caribisch Nederland worden genoemd. Europees Nederland wordt in het zuiden begrensd door België, langs de oostgrens door Duitsland en aan west- en noordzijde door de zee. De hoofdstad van Nederland is Amsterdam, de regeringszetel is Den Haag.
Nederland heeft een inwonertal van 17.474.693 (1 januari 2021) en met een oppervlakte van 41.543 km² een bevolkingsdichtheid van bijna 420 inwoners/km². Daarmee is Nederland het op vijftien na dichtst bevolkte land van de wereld; met de kleine stadstaten Monaco, Vaticaanstad en San Marino niet meegerekend is Nederland na Malta het dichtstbevolkte land in Europa. Ruim 19% van het oppervlak bestaat uit water en een groot deel van het land en de bevolking bevindt zich onder zeeniveau. Het land wordt beschermd tegen het water door middel van een systeem van dijken en waterwerken. Door landwinning zijn polders gecreëerd. Bestuurlijk is het land verdeeld in twaalf provincies en circa 350 gemeenten.
Nederland werd onafhankelijk tijdens de Tachtigjarige Oorlog (1568-1648), waarin de gezamenlijke Noordelijke en Zuidelijke Nederlanden tegen de Spaanse overheersing in opstand kwamen. In 1579 vormden de Noordelijke Nederlanden de Unie van Utrecht, waarmee een nieuwe politieke entiteit ontstond. Met de Acte van Verlatinghe van 1581 werd door de gewesten van die unie, Stad en Lande (Groningen), Friesland, Overijssel, Gelderland, Utrecht, Holland, Zeeland, de onafhankelijkheid van de Republiek der Zeven Verenigde Nederlanden uitgeroepen. Deze werd vanaf 1609 bij het begin van het Twaalfjarig Bestand internationaal erkend en na de Vrede van Münster (1648) ook door Spanje. Vanaf de Franse tijd (1795-1813) ontwikkelde Nederland zich tot een natiestaat. De Nederlandse vorst regeerde anno 1815 ook over het huidige België en Luxemburg, evenals een aantal overzeese gebieden (Nederlands-Indië, Suriname en de Nederlandse Antillen). België werd echter onafhankelijk na de Belgische Revolutie in 1830 en Luxemburg maakte zich in 1890 los van de Nederlandse Kroon. De dekolonisatie maakte in de 20e eeuw ook een einde aan de Nederlandse koloniën. Behalve de drie Caribische bijzondere gemeenten onderhouden ook de eilanden Aruba, Curaçao en Sint Maarten een hechte band met Nederland: deze vier landen vormen sinds 2010 samen het Koninkrijk der Nederlanden.
Politiek is Nederland sinds de grondwetsherziening van 1848 een parlementaire democratie met een constitutionele monarchie, een staatsvorm waarbij de macht volgens de regels gedeeld wordt door de koning(in), de ministers onder wie de minister-president en de twee kamers van het parlement. Nederland was medeoprichter van onder meer de Europese Unie, de G-10, de NAVO, de Wereldhandelsorganisatie en de OESO. Met België en Luxemburg vormt het de Benelux. Den Haag speelt een belangrijke internationale rol op juridisch gebied, als locatie voor vier internationale tribunalen en Europol. In 2009 behoorde Nederland als 's werelds zevende economie naar bbp per hoofd van de bevolking tot de meest ontwikkelde landen. Het bezette in 2013 de vierde plaats in de index van de menselijke ontwikkeling. De Nederlandse economie steunt vooral op een zeer hoog ontwikkelde land- en tuinbouwsector, de dienstensector en de internationale handel, met name op de doorvoer van goederen naar Duitsland.","Rotterdam ( uitspraak (info / uitleg)) is een havenstad in het westen van Nederland, in de provincie Zuid-Holland. Met 587.960 inwoners (1 januari 2020) is het de op een na grootste stad van Nederland qua inwoneraantal, na Amsterdam. De metropoolregio Rotterdam Den Haag telt meer dan 2,3 miljoen inwoners.
Rotterdam dankt zijn naam aan een dam in de rivier de Rotte. De stad ligt aan de Nieuwe Maas, een van de rivieren in de delta die gevormd wordt door de Rijn en de Maas. De haven van Rotterdam was lange tijd de grootste ter wereld en is nog altijd de grootste en belangrijkste van Europa. Het havengebied strekt zich uit over een lengte van 40 kilometer en is een belangrijk logistiek en economisch centrum. Mede vanwege de havenindustrie heeft Rotterdam het imago van een arbeidersstad en kent de stad een zeer diverse bevolking.
Nadat de historische binnenstad grotendeels verwoest werd door een Duits oorlogsbombardement in 1940, is Rotterdam een bakermat geworden voor vernieuwende architectuur, waaronder de Erasmusbrug, de Kubuswoningen en een groot aantal wolkenkrabbers. Bekendheid geniet de stad daarnaast vanwege de Erasmus Universiteit, de kunstcollecties van Museum Boijmans Van Beuningen en de Kunsthal en voetbalclubs Sparta, Excelsior en Feyenoord","52.5001698,5.7480821"
Nederland,Breda,30,uitgaan,"Nederland is een van de landen binnen het Koninkrijk der Nederlanden. Nederland ligt voor het overgrote deel in het noordwesten van Europa, aan de Noordzee. Naast het Europese deel zijn er nog de drie bijzondere gemeenten in de Caribische Zee, die ook wel Caribisch Nederland worden genoemd. Europees Nederland wordt in het zuiden begrensd door België, langs de oostgrens door Duitsland en aan west- en noordzijde door de zee. De hoofdstad van Nederland is Amsterdam, de regeringszetel is Den Haag.
Nederland heeft een inwonertal van 17.474.693 (1 januari 2021) en met een oppervlakte van 41.543 km² een bevolkingsdichtheid van bijna 420 inwoners/km². Daarmee is Nederland het op vijftien na dichtst bevolkte land van de wereld; met de kleine stadstaten Monaco, Vaticaanstad en San Marino niet meegerekend is Nederland na Malta het dichtstbevolkte land in Europa. Ruim 19% van het oppervlak bestaat uit water en een groot deel van het land en de bevolking bevindt zich onder zeeniveau. Het land wordt beschermd tegen het water door middel van een systeem van dijken en waterwerken. Door landwinning zijn polders gecreëerd. Bestuurlijk is het land verdeeld in twaalf provincies en circa 350 gemeenten.
Nederland werd onafhankelijk tijdens de Tachtigjarige Oorlog (1568-1648), waarin de gezamenlijke Noordelijke en Zuidelijke Nederlanden tegen de Spaanse overheersing in opstand kwamen. In 1579 vormden de Noordelijke Nederlanden de Unie van Utrecht, waarmee een nieuwe politieke entiteit ontstond. Met de Acte van Verlatinghe van 1581 werd door de gewesten van die unie, Stad en Lande (Groningen), Friesland, Overijssel, Gelderland, Utrecht, Holland, Zeeland, de onafhankelijkheid van de Republiek der Zeven Verenigde Nederlanden uitgeroepen. Deze werd vanaf 1609 bij het begin van het Twaalfjarig Bestand internationaal erkend en na de Vrede van Münster (1648) ook door Spanje. Vanaf de Franse tijd (1795-1813) ontwikkelde Nederland zich tot een natiestaat. De Nederlandse vorst regeerde anno 1815 ook over het huidige België en Luxemburg, evenals een aantal overzeese gebieden (Nederlands-Indië, Suriname en de Nederlandse Antillen). België werd echter onafhankelijk na de Belgische Revolutie in 1830 en Luxemburg maakte zich in 1890 los van de Nederlandse Kroon. De dekolonisatie maakte in de 20e eeuw ook een einde aan de Nederlandse koloniën. Behalve de drie Caribische bijzondere gemeenten onderhouden ook de eilanden Aruba, Curaçao en Sint Maarten een hechte band met Nederland: deze vier landen vormen sinds 2010 samen het Koninkrijk der Nederlanden.
Politiek is Nederland sinds de grondwetsherziening van 1848 een parlementaire democratie met een constitutionele monarchie, een staatsvorm waarbij de macht volgens de regels gedeeld wordt door de koning(in), de ministers onder wie de minister-president en de twee kamers van het parlement. Nederland was medeoprichter van onder meer de Europese Unie, de G-10, de NAVO, de Wereldhandelsorganisatie en de OESO. Met België en Luxemburg vormt het de Benelux. Den Haag speelt een belangrijke internationale rol op juridisch gebied, als locatie voor vier internationale tribunalen en Europol. In 2009 behoorde Nederland als 's werelds zevende economie naar bbp per hoofd van de bevolking tot de meest ontwikkelde landen. Het bezette in 2013 de vierde plaats in de index van de menselijke ontwikkeling. De Nederlandse economie steunt vooral op een zeer hoog ontwikkelde land- en tuinbouwsector, de dienstensector en de internationale handel, met name op de doorvoer van goederen naar Duitsland.","Breda ( uitspraak (info / uitleg)[bre.'da]?) is een Nederlandse stad in het westen van de provincie Noord-Brabant. Breda is van oudsher de voornaamste stad van West-Brabant. Het was de hoofdstad van de Baronie van Breda, waaronder onder meer ook Roosendaal, Etten-Leur en Oosterhout ressorteerden. Thans is het de hoofdstad van de gelijknamige gemeente Breda, die per 1 januari 2021 184.077 inwoners (Bredanaren of Bredanaars genoemd) telde, en daarmee in grootte de derde gemeente van Noord-Brabant is en de negende gemeente van Nederland.
De stad was eeuwenlang een belangrijke garnizoens- en vestingstad en speelt nog steeds een zichtbare rol binnen de Nederlandse krijgsmacht door de aanwezigheid van de Koninklijke Militaire Academie (KMA) en het hoofdkwartier van de Koninklijke Luchtmacht. Zij is sedert 1853 de zetel van het gelijknamige bisdom. De aanwezigheid eerst van de Heren van Breda, maar later ook van de Kamer van koophandel, de Rechtbank en het Bisdom hebben ervoor gezorgd dat Breda zowel traditioneel als heden ten dage het politieke, administratieve en religieus-bestuurlijke hart van West-Brabant vormt. De stad bezit vanouds ook veel handel en industrie. Zij ligt aan een knooppunt van water-, spoor- en autowegen.","52.5001698,5.7480821"
Nederland,Bergen N-H,25,strand,"Nederland is een van de landen binnen het Koninkrijk der Nederlanden. Nederland ligt voor het overgrote deel in het noordwesten van Europa, aan de Noordzee. Naast het Europese deel zijn er nog de drie bijzondere gemeenten in de Caribische Zee, die ook wel Caribisch Nederland worden genoemd. Europees Nederland wordt in het zuiden begrensd door België, langs de oostgrens door Duitsland en aan west- en noordzijde door de zee. De hoofdstad van Nederland is Amsterdam, de regeringszetel is Den Haag.
Nederland heeft een inwonertal van 17.474.693 (1 januari 2021) en met een oppervlakte van 41.543 km² een bevolkingsdichtheid van bijna 420 inwoners/km². Daarmee is Nederland het op vijftien na dichtst bevolkte land van de wereld; met de kleine stadstaten Monaco, Vaticaanstad en San Marino niet meegerekend is Nederland na Malta het dichtstbevolkte land in Europa. Ruim 19% van het oppervlak bestaat uit water en een groot deel van het land en de bevolking bevindt zich onder zeeniveau. Het land wordt beschermd tegen het water door middel van een systeem van dijken en waterwerken. Door landwinning zijn polders gecreëerd. Bestuurlijk is het land verdeeld in twaalf provincies en circa 350 gemeenten.
Nederland werd onafhankelijk tijdens de Tachtigjarige Oorlog (1568-1648), waarin de gezamenlijke Noordelijke en Zuidelijke Nederlanden tegen de Spaanse overheersing in opstand kwamen. In 1579 vormden de Noordelijke Nederlanden de Unie van Utrecht, waarmee een nieuwe politieke entiteit ontstond. Met de Acte van Verlatinghe van 1581 werd door de gewesten van die unie, Stad en Lande (Groningen), Friesland, Overijssel, Gelderland, Utrecht, Holland, Zeeland, de onafhankelijkheid van de Republiek der Zeven Verenigde Nederlanden uitgeroepen. Deze werd vanaf 1609 bij het begin van het Twaalfjarig Bestand internationaal erkend en na de Vrede van Münster (1648) ook door Spanje. Vanaf de Franse tijd (1795-1813) ontwikkelde Nederland zich tot een natiestaat. De Nederlandse vorst regeerde anno 1815 ook over het huidige België en Luxemburg, evenals een aantal overzeese gebieden (Nederlands-Indië, Suriname en de Nederlandse Antillen). België werd echter onafhankelijk na de Belgische Revolutie in 1830 en Luxemburg maakte zich in 1890 los van de Nederlandse Kroon. De dekolonisatie maakte in de 20e eeuw ook een einde aan de Nederlandse koloniën. Behalve de drie Caribische bijzondere gemeenten onderhouden ook de eilanden Aruba, Curaçao en Sint Maarten een hechte band met Nederland: deze vier landen vormen sinds 2010 samen het Koninkrijk der Nederlanden.
Politiek is Nederland sinds de grondwetsherziening van 1848 een parlementaire democratie met een constitutionele monarchie, een staatsvorm waarbij de macht volgens de regels gedeeld wordt door de koning(in), de ministers onder wie de minister-president en de twee kamers van het parlement. Nederland was medeoprichter van onder meer de Europese Unie, de G-10, de NAVO, de Wereldhandelsorganisatie en de OESO. Met België en Luxemburg vormt het de Benelux. Den Haag speelt een belangrijke internationale rol op juridisch gebied, als locatie voor vier internationale tribunalen en Europol. In 2009 behoorde Nederland als 's werelds zevende economie naar bbp per hoofd van de bevolking tot de meest ontwikkelde landen. Het bezette in 2013 de vierde plaats in de index van de menselijke ontwikkeling. De Nederlandse economie steunt vooral op een zeer hoog ontwikkelde land- en tuinbouwsector, de dienstensector en de internationale handel, met name op de doorvoer van goederen naar Duitsland.","Bergen ( uitspraak (info / uitleg)) is een dorp en gemeente in de Nederlandse provincie Noord-Holland. De gemeente telt 29.696 inwoners (1 januari 2021, bron: CBS) en heeft een oppervlakte van 119,85 km² (waarvan 22,70 km² water). De gemeente maakt deel uit van de samenwerkingsregio Kennemerland.
De gemeente is een populaire toeristenbestemming, vooral vanwege het strand en de badplaatsen langs de Noordzeekust.","52.5001698,5.7480821"
Nederland,Arnhem,30,city trip,"Nederland is een van de landen binnen het Koninkrijk der Nederlanden. Nederland ligt voor het overgrote deel in het noordwesten van Europa, aan de Noordzee. Naast het Europese deel zijn er nog de drie bijzondere gemeenten in de Caribische Zee, die ook wel Caribisch Nederland worden genoemd. Europees Nederland wordt in het zuiden begrensd door België, langs de oostgrens door Duitsland en aan west- en noordzijde door de zee. De hoofdstad van Nederland is Amsterdam, de regeringszetel is Den Haag.
Nederland heeft een inwonertal van 17.474.693 (1 januari 2021) en met een oppervlakte van 41.543 km² een bevolkingsdichtheid van bijna 420 inwoners/km². Daarmee is Nederland het op vijftien na dichtst bevolkte land van de wereld; met de kleine stadstaten Monaco, Vaticaanstad en San Marino niet meegerekend is Nederland na Malta het dichtstbevolkte land in Europa. Ruim 19% van het oppervlak bestaat uit water en een groot deel van het land en de bevolking bevindt zich onder zeeniveau. Het land wordt beschermd tegen het water door middel van een systeem van dijken en waterwerken. Door landwinning zijn polders gecreëerd. Bestuurlijk is het land verdeeld in twaalf provincies en circa 350 gemeenten.
Nederland werd onafhankelijk tijdens de Tachtigjarige Oorlog (1568-1648), waarin de gezamenlijke Noordelijke en Zuidelijke Nederlanden tegen de Spaanse overheersing in opstand kwamen. In 1579 vormden de Noordelijke Nederlanden de Unie van Utrecht, waarmee een nieuwe politieke entiteit ontstond. Met de Acte van Verlatinghe van 1581 werd door de gewesten van die unie, Stad en Lande (Groningen), Friesland, Overijssel, Gelderland, Utrecht, Holland, Zeeland, de onafhankelijkheid van de Republiek der Zeven Verenigde Nederlanden uitgeroepen. Deze werd vanaf 1609 bij het begin van het Twaalfjarig Bestand internationaal erkend en na de Vrede van Münster (1648) ook door Spanje. Vanaf de Franse tijd (1795-1813) ontwikkelde Nederland zich tot een natiestaat. De Nederlandse vorst regeerde anno 1815 ook over het huidige België en Luxemburg, evenals een aantal overzeese gebieden (Nederlands-Indië, Suriname en de Nederlandse Antillen). België werd echter onafhankelijk na de Belgische Revolutie in 1830 en Luxemburg maakte zich in 1890 los van de Nederlandse Kroon. De dekolonisatie maakte in de 20e eeuw ook een einde aan de Nederlandse koloniën. Behalve de drie Caribische bijzondere gemeenten onderhouden ook de eilanden Aruba, Curaçao en Sint Maarten een hechte band met Nederland: deze vier landen vormen sinds 2010 samen het Koninkrijk der Nederlanden.
Politiek is Nederland sinds de grondwetsherziening van 1848 een parlementaire democratie met een constitutionele monarchie, een staatsvorm waarbij de macht volgens de regels gedeeld wordt door de koning(in), de ministers onder wie de minister-president en de twee kamers van het parlement. Nederland was medeoprichter van onder meer de Europese Unie, de G-10, de NAVO, de Wereldhandelsorganisatie en de OESO. Met België en Luxemburg vormt het de Benelux. Den Haag speelt een belangrijke internationale rol op juridisch gebied, als locatie voor vier internationale tribunalen en Europol. In 2009 behoorde Nederland als 's werelds zevende economie naar bbp per hoofd van de bevolking tot de meest ontwikkelde landen. Het bezette in 2013 de vierde plaats in de index van de menselijke ontwikkeling. De Nederlandse economie steunt vooral op een zeer hoog ontwikkelde land- en tuinbouwsector, de dienstensector en de internationale handel, met name op de doorvoer van goederen naar Duitsland.","Arnhem (uitspraakː  /ˈɑrnɦɛm/ (info / uitleg) of  /ˈɑrnɛm/ (info / uitleg), Arnhems: Ernem, Duits: Arnheim) is een stad en gemeente in Nederland en de hoofdstad van de provincie Gelderland. De gemeente telt 162.477 inwoners per 1 januari 2021 (bron: CBS) en is daarmee de dertiende gemeente van Nederland.
Tot de gemeente Arnhem behoren behalve de stad Arnhem ook de dorpen Elden en Schaarsbergen, de buurtschappen De Praets en 't Vlot, en delen van de buurtschappen Terlet en Deelen. De agglomeratie Arnhem, bestaande uit onder andere de gemeenten Arnhem, Westervoort, Duiven, Zevenaar, Lingewaard, Overbetuwe, Renkum en Rheden, telt circa 450.000 inwoners op een oppervlakte van ongeveer 714 km².
Arnhem ligt aan de rivier de Nederrijn, de IJssel en de Sint-Jansbeek. De stad ligt aan beide zijden van de Rijn. Vooral het zuidelijke stadsdeel heeft zich na de Tweede Wereldoorlog grootschalig ontwikkeld. De stad staat internationaal bekend om de Slag om Arnhem: in de Tweede Wereldoorlog speelde Arnhem een belangrijke hoofdrol vanwege de luchtlanding en veldslag van de geallieerde troepen in september 1944, als onderdeel van Operatie Market Garden. Op verschillende plekken in de stad markeren monumenten de plekken waar tijdens de oorlog hevig werd gevochten.
De rechtbank Gelderland en het gerechtshof Arnhem-Leeuwarden zijn in de stad gevestigd, en het is de basis van de landelijke militaire kamer en de luchtmobiele brigade. Daarnaast is de stad standplaats van een aantal nationale en internationale bezienswaardigheden, waaronder het Nederlands Openluchtmuseum en dierentuin Koninklijke Burgers' Zoo.","52.5001698,5.7480821"
Noord Korea,Pyongyang,12,Ruimtevaart,"Noord-Korea, officieel de Democratische Volksrepubliek Korea (Hangul: 조선민주주의인민공화국; Hanja: 朝鮮民主主義人民共和國; MR: Chosŏn Minjujŭi Inmin Konghwaguk), is een land op het Koreaans Schiereiland in Oost-Azië dat grenst aan de landen China, Rusland en Zuid-Korea en aan de Gele Zee en de Japanse Zee. Noord-Korea heeft een bevolking van 25,2 miljoen (2017) mensen. De hoofdstad is Pyongyang.
Het Koreaans Schiereiland was bijna duizend jaar verenigd en onafhankelijk – achtereenvolgens onder de Goryeodynastie, de Joseondynastie en het Keizerrijk Korea – toen het begin 20e eeuw door Japan werd bezet. Na de Japanse overgave in 1945 werd Korea in tweeën gedeeld. Pogingen het land te herenigen mislukten, waarop in 1948 de Democratische Volksrepubliek Korea het licht zag. De Koreaanse Oorlog (1950-1953) eindigde door tussenkomst van de Verenigde Naties in een wapenstilstand. Op de grens met het zuiden werd daarna een zwaarbewaakte gedemilitariseerde zone opgericht.
Noord-Korea is een totalitaire dictatuur waarin de macht ligt bij de Koreaanse Arbeiderspartij en de Kim-dynastie die het land sinds de oprichting regeert. De politiek leider is Kim Jong-un, de kleinzoon van oprichter Kim Il-sung, die als eeuwig president nog steeds vereerd wordt. Juche, de staatsideologie, stelt het streven naar zelfvoorzienendheid centraal. De economie wordt gedomineerd door staatsbedrijven en de landbouw is gecollectiviseerd. Volgens internationale organisaties en gevluchte inwoners maakt het regime zich veelvuldig schuldig aan het organiseren van schijnverkiezingen, mensenrechtenschendingen en het bestaan van concentratiekampen.
Noord-Korea is grotendeels afgeschermd van de buitenwereld, al is het wel lid van de Verenigde Naties. Niemand mag zomaar in/uit het land. China is met afstand de grootste handelspartner. Vanwege het Noord-Koreaanse kernwapenprogramma is het land onderworpen aan internationale sancties.",Pyongyang (uitspraak en verouderde schrijfwijze: Pjongjang of Pchenjan) is de hoofdstad en regeringszetel van Noord-Korea. De stad ligt in het zuidwesten van het land aan de rivier de Taedong en telt ruim 3 miljoen inwoners. Het is daarmee de grootste stad van het land.,"40.3736611,127.0870417"
